synchro_D/synchro_D.sim/sim_1/behav/xsim/dump.vcd
$date
   Mon Oct  7 08:09:19 2024
$end
$version
  2022.2
$end
$timescale
  1ps
$end
$scope module tb $end
$var reg 1 ! clk $end
$var reg 1 " rst_n $end
$var reg 1 # d $end
$var wire 1 $ q $end
$upscope $end
$enddefinitions $end
#0
$dumpvars
0!
0"
0#
x$
$end
#2000
1!
0$
#3000
1"
1#
#4000
0!
#6000
1!
0#
#8000
0!
#10000
1!
#12000
0!
#14000
1!
#16000
0!
#18000
1!
1#
1$
#20000
0!
#21000
0"
#22000
1!
0$
#24000
0!
1"
0#
#26000
1!
#27000
1#
#28000
0!
#30000
1!
1$
